basic;id;17;hasfitness;1;fitness;0.202868;distance;0.5;time;1997;headHeight;0.951928;12|QW--|--O-|--OP|--OP|QWO-|--O-|---P|Q-O-|-WO-|--OP|-WO-|--O-;
basic;id;16;hasfitness;1;fitness;0.330082;distance;0.9;time;2543;headHeight;1.04451;12|----|QW--|Q-O-|--OP|-W--|QWOP|QWOP|---P|-W-P|Q---|Q--P|-W--;
basic;id;41;hasfitness;1;fitness;0.345653;distance;1.3;time;2199;headHeight;0.889211;12|-WOP|Q-O-|QWOP|--O-|Q--P|QW--|QW-P|QWOP|-WOP|QWO-|--O-|-WOP;
basic;id;226;hasfitness;1;fitness;4.20909;distance;3.1;time;15007;headHeight;0.703798;12|QWO-|Q--P|-W--|QWO-|Q---|QW-P|QWO-|QW-P|-W-P|--O-|--O-|QW-P;
basic;id;211;hasfitness;1;fitness;4.42568;distance;3.3;time;15008;headHeight;0.76172;12|Q-O-|---P|-WO-|QWO-|Q---|QW-P|QW-P|QWOP|-W-P|QWOP|QW-P|---P;
basic;id;72;hasfitness;1;fitness;4.71964;distance;3.6;time;15070;headHeight;0.66468;12|QWO-|Q--P|QWO-|QWOP|Q---|-W-P|QW-P|QWOP|-W-P|Q-O-|--O-|QW-P;
basic;id;465;hasfitness;1;fitness;5.2389;distance;4.1;time;15039;headHeight;0.677558;12|----|Q--P|-WO-|QWO-|QW--|QW-P|QWOP|Q-O-|QW-P|Q-OP|-WO-|QW-P;
basic;id;469;hasfitness;1;fitness;5.44794;distance;4.3;time;15007;headHeight;0.688081;12|Q---|Q--P|-WO-|QWO-|Q---|Q--P|QWO-|QW-P|-WOP|QWOP|-WO-|QW-P;
basic;id;709;hasfitness;1;fitness;5.85849;distance;4.7;time;15054;headHeight;0.674443;12|QWO-|Q--P|-WO-|QWO-|QW--|Q--P|QWO-|QW-P|-WOP|QWOP|--OP|QW-P;
basic;id;702;hasfitness;1;fitness;5.85915;distance;4.7;time;15023;headHeight;0.677249;12|Q-O-|Q--P|-WO-|Q-O-|Q---|QW-P|QWOP|Q-O-|-W-P|QWOP|-WO-|QW-P;
basic;id;151;hasfitness;1;fitness;5.94829;distance;4.8;time;15007;headHeight;0.617857;12|Q-O-|Q--P|-WO-|QWO-|Q---|QW-P|QWO-|QW-P|-W-P|QWOP|--O-|QW-P;
basic;id;152;hasfitness;1;fitness;5.97172;distance;4.8;time;15054;headHeight;0.715519;12|QWO-|Q--P|-W--|QWO-|Q--P|-W-P|QWO-|QW-P|-W-P|--O-|--O-|QW-P;
basic;id;716;hasfitness;1;fitness;6.27266;distance;5.1;time;15055;headHeight;0.677109;12|Q-O-|Q--P|-WO-|QWOP|QW--|QW-P|QWOP|Q-O-|QW-P|--OP|--O-|Q--P;
basic;id;724;hasfitness;1;fitness;6.58578;distance;5.4;time;15023;headHeight;0.68806;12|QWO-|Q--P|-WO-|QWO-|QW--|QW-P|QWOP|Q---|QW-P|--OP|--OP|---P;
basic;id;1005;hasfitness;1;fitness;6.88896;distance;5.7;time;15069;headHeight;0.663009;12|Q-O-|Q--P|-WOP|QWO-|QW--|Q--P|QWOP|Q-O-|QW-P|--OP|--OP|Q--P;
basic;id;1015;hasfitness;1;fitness;6.99485;distance;5.8;time;15038;headHeight;0.671898;12|QWO-|Q--P|-WO-|QWO-|Q---|Q--P|QWOP|Q-O-|QW-P|--OP|--OP|QW-P;
basic;id;975;hasfitness;1;fitness;6.99728;distance;5.8;time;15070;headHeight;0.680259;12|Q-O-|Q--P|-WOP|QWO-|QW--|Q--P|QWOP|Q-O-|QW-P|--OP|--OP|Q--P;
basic;id;962;hasfitness;1;fitness;7.09752;distance;5.9;time;15070;headHeight;0.669562;12|QWO-|Q--P|-WO-|QWO-|QW--|Q--P|QWOP|Q-O-|QW-P|--OP|Q-OP|Q--P;
basic;id;727;hasfitness;1;fitness;7.30333;distance;6.1;time;15069;headHeight;0.666645;12|QWO-|Q--P|-WO-|QWO-|QW--|QW-P|QWOP|Q---|QW-P|--OP|--OP|Q--P;
basic;id;3448;hasfitness;1;fitness;7.61672;distance;6.4;time;15054;headHeight;0.677263;12|Q-OP|Q--P|-WO-|QW--|QW--|Q--P|QWOP|Q-O-|QW-P|--OP|--O-|Q--P;
basic;id;3633;hasfitness;1;fitness;7.91704;distance;6.7;time;15023;headHeight;0.647868;12|Q-O-|Q--P|-WO-|QWO-|QW--|QW-P|-WO-|Q-OP|QW-P|--OP|--O-|Q--P;
basic;id;3835;hasfitness;1;fitness;7.91919;distance;6.7;time;15039;headHeight;0.654308;12|QWOP|Q--P|-WO-|QWO-|QW--|Q--P|Q-OP|Q-O-|QW-P|--OP|--OP|Q--P;
basic;id;4221;hasfitness;1;fitness;7.92003;distance;6.7;time;15070;headHeight;0.656821;12|QWO-|Q--P|-WOP|QWOP|QW--|Q--P|QWOP|Q-O-|QW-P|--OP|--O-|Q--P;
