<?xml version="1.0" encoding="UTF-8" standalone="no"?>
<!-- Created with Inkscape (http://www.inkscape.org/) -->

<svg
   xmlns:dc="http://purl.org/dc/elements/1.1/"
   xmlns:cc="http://creativecommons.org/ns#"
   xmlns:rdf="http://www.w3.org/1999/02/22-rdf-syntax-ns#"
   xmlns:svg="http://www.w3.org/2000/svg"
   xmlns="http://www.w3.org/2000/svg"
   xmlns:sodipodi="http://sodipodi.sourceforge.net/DTD/sodipodi-0.dtd"
   xmlns:inkscape="http://www.inkscape.org/namespaces/inkscape"
   inkscape:version="0.91pre4 r13712"
   version="1.1"
   id="svg2"
   viewBox="0 0 744.09448819 1052.3622047"
   height="297mm"
   width="210mm"
   sodipodi:docname="genom.svg">
  <defs
     id="defs4">
    <marker
       inkscape:stockid="Arrow2Mend"
       orient="auto"
       refY="0.0"
       refX="0.0"
       id="marker5540"
       style="overflow:visible;"
       inkscape:isstock="true">
      <path
         id="path5542"
         style="fill-rule:evenodd;stroke-width:0.625;stroke-linejoin:round;stroke:#cccccc;stroke-opacity:1;fill:#cccccc;fill-opacity:1"
         d="M 8.7185878,4.0337352 L -2.2072895,0.016013256 L 8.7185884,-4.0017078 C 6.9730900,-1.6296469 6.9831476,1.6157441 8.7185878,4.0337352 z "
         transform="scale(0.6) rotate(180) translate(0,0)" />
    </marker>
    <marker
       inkscape:stockid="Arrow2Mstart"
       orient="auto"
       refY="0.0"
       refX="0.0"
       id="Arrow2Mstart"
       style="overflow:visible"
       inkscape:isstock="true">
      <path
         id="path5266"
         style="fill-rule:evenodd;stroke-width:0.625;stroke-linejoin:round;stroke:#000000;stroke-opacity:1;fill:#000000;fill-opacity:1"
         d="M 8.7185878,4.0337352 L -2.2072895,0.016013256 L 8.7185884,-4.0017078 C 6.9730900,-1.6296469 6.9831476,1.6157441 8.7185878,4.0337352 z "
         transform="scale(0.6) translate(0,0)" />
    </marker>
    <marker
       inkscape:stockid="Arrow2Mend"
       orient="auto"
       refY="0.0"
       refX="0.0"
       id="Arrow2Mend"
       style="overflow:visible;"
       inkscape:isstock="true">
      <path
         id="path5269"
         style="fill-rule:evenodd;stroke-width:0.625;stroke-linejoin:round;stroke:#000000;stroke-opacity:1;fill:#000000;fill-opacity:1"
         d="M 8.7185878,4.0337352 L -2.2072895,0.016013256 L 8.7185884,-4.0017078 C 6.9730900,-1.6296469 6.9831476,1.6157441 8.7185878,4.0337352 z "
         transform="scale(0.6) rotate(180) translate(0,0)" />
    </marker>
    <marker
       inkscape:stockid="Arrow1Lend"
       orient="auto"
       refY="0.0"
       refX="0.0"
       id="Arrow1Lend"
       style="overflow:visible;"
       inkscape:isstock="true">
      <path
         id="path5245"
         d="M 0.0,0.0 L 5.0,-5.0 L -12.5,0.0 L 5.0,5.0 L 0.0,0.0 z "
         style="fill-rule:evenodd;stroke:#000000;stroke-width:1pt;stroke-opacity:1;fill:#000000;fill-opacity:1"
         transform="scale(0.8) rotate(180) translate(12.5,0)" />
    </marker>
  </defs>
  <sodipodi:namedview
     inkscape:window-maximized="1"
     inkscape:window-y="-8"
     inkscape:window-x="-8"
     inkscape:window-height="1018"
     inkscape:window-width="1920"
     inkscape:snap-tangential="true"
     inkscape:snap-grids="true"
     inkscape:snap-to-guides="true"
     inkscape:guide-bbox="true"
     showguides="true"
     showgrid="false"
     inkscape:current-layer="layer1"
     inkscape:document-units="px"
     inkscape:cy="849.43929"
     inkscape:cx="295.49181"
     inkscape:zoom="1.4"
     inkscape:pageshadow="2"
     inkscape:pageopacity="0.0"
     borderopacity="1.0"
     bordercolor="#666666"
     pagecolor="#ffffff"
     id="base" />
  <metadata
     id="metadata7">
    <rdf:RDF>
      <cc:Work
         rdf:about="">
        <dc:format>image/svg+xml</dc:format>
        <dc:type
           rdf:resource="http://purl.org/dc/dcmitype/StillImage" />
        <dc:title></dc:title>
      </cc:Work>
    </rdf:RDF>
  </metadata>
  <g
     inkscape:label="Layer 1"
     inkscape:groupmode="layer"
     id="layer1">
    <g
       id="g6088"
       transform="translate(-3.738585,-93.439111)">
      <text
         sodipodi:linespacing="125%"
         id="text4302"
         y="125.5765"
         x="35.207729"
         style="font-style:normal;font-variant:normal;font-weight:normal;font-stretch:normal;font-size:12px;line-height:125%;font-family:Cambria;-inkscape-font-specification:Cambria;letter-spacing:0px;word-spacing:0px;fill:#000000;fill-opacity:1;stroke:none;stroke-width:1px;stroke-linecap:butt;stroke-linejoin:miter;stroke-opacity:1"
         xml:space="preserve"><tspan
           style="font-style:normal;font-variant:normal;font-weight:normal;font-stretch:normal;font-family:Cambria;-inkscape-font-specification:Cambria"
           y="125.5765"
           x="35.207729"
           id="tspan4304"
           sodipodi:role="line">Q</tspan></text>
      <text
         sodipodi:linespacing="125%"
         id="text4306"
         y="150.49837"
         x="33.857143"
         style="font-style:normal;font-variant:normal;font-weight:normal;font-stretch:normal;font-size:12px;line-height:125%;font-family:Cambria;-inkscape-font-specification:Cambria;letter-spacing:0px;word-spacing:0px;fill:#000000;fill-opacity:1;stroke:none;stroke-width:1px;stroke-linecap:butt;stroke-linejoin:miter;stroke-opacity:1"
         xml:space="preserve"><tspan
           style="font-style:normal;font-variant:normal;font-weight:normal;font-stretch:normal;font-family:Cambria;-inkscape-font-specification:Cambria"
           y="150.49837"
           x="33.857143"
           id="tspan4308"
           sodipodi:role="line">W</tspan></text>
      <text
         sodipodi:linespacing="125%"
         id="text4310"
         y="174.03157"
         x="35.532925"
         style="font-style:normal;font-variant:normal;font-weight:normal;font-stretch:normal;font-size:12px;line-height:125%;font-family:Cambria;-inkscape-font-specification:Cambria;letter-spacing:0px;word-spacing:0px;fill:#000000;fill-opacity:1;stroke:none;stroke-width:1px;stroke-linecap:butt;stroke-linejoin:miter;stroke-opacity:1"
         xml:space="preserve"><tspan
           style="font-style:normal;font-variant:normal;font-weight:normal;font-stretch:normal;font-family:Cambria;-inkscape-font-specification:Cambria"
           y="174.03157"
           x="35.532925"
           id="tspan4312"
           sodipodi:role="line">O</tspan></text>
      <text
         sodipodi:linespacing="125%"
         id="text4314"
         y="197.57649"
         x="35.934292"
         style="font-style:normal;font-variant:normal;font-weight:normal;font-stretch:normal;font-size:12px;line-height:125%;font-family:Cambria;-inkscape-font-specification:Cambria;letter-spacing:0px;word-spacing:0px;fill:#000000;fill-opacity:1;stroke:none;stroke-width:1px;stroke-linecap:butt;stroke-linejoin:miter;stroke-opacity:1"
         xml:space="preserve"><tspan
           y="197.57649"
           x="35.934292"
           id="tspan4316"
           sodipodi:role="line">P</tspan></text>
    </g>
    <text
       xml:space="preserve"
       style="font-style:normal;font-weight:normal;font-size:12px;line-height:125%;font-family:Sans;letter-spacing:0px;word-spacing:0px;fill:#000000;fill-opacity:1;stroke:none;stroke-width:1px;stroke-linecap:butt;stroke-linejoin:miter;stroke-opacity:1"
       x="52.275394"
       y="121.64792"
       id="text4335"
       sodipodi:linespacing="125%"><tspan
         sodipodi:role="line"
         id="tspan4337"
         x="52.275394"
         y="121.64792" /></text>
    <rect
       style="opacity:1;fill:#aaeeff;fill-opacity:1;stroke:#4d4d4d;stroke-width:1;stroke-linecap:butt;stroke-linejoin:bevel;stroke-miterlimit:4;stroke-dasharray:none;stroke-dashoffset:0;stroke-opacity:1"
       id="rect3336"
       width="21.428572"
       height="21.428572"
       x="49.032936"
       y="17.45208" />
    <rect
       y="41.45208"
       x="49.032936"
       height="21.428572"
       width="21.428572"
       id="rect4168"
       style="opacity:1;fill:#aaeeff;fill-opacity:1;stroke:#4d4d4d;stroke-width:1;stroke-linecap:butt;stroke-linejoin:bevel;stroke-miterlimit:4;stroke-dasharray:none;stroke-dashoffset:0;stroke-opacity:1" />
    <rect
       style="opacity:1;fill:#aaeeff;fill-opacity:1;stroke:#4d4d4d;stroke-width:1;stroke-linecap:butt;stroke-linejoin:bevel;stroke-miterlimit:4;stroke-dasharray:none;stroke-dashoffset:0;stroke-opacity:1"
       id="rect4170"
       width="21.428572"
       height="21.428572"
       x="49.032936"
       y="65.452072" />
    <rect
       y="89.45208"
       x="49.032936"
       height="21.428572"
       width="21.428572"
       id="rect4172"
       style="opacity:1;fill:#aaeeff;fill-opacity:1;stroke:#4d4d4d;stroke-width:1;stroke-linecap:butt;stroke-linejoin:bevel;stroke-miterlimit:4;stroke-dasharray:none;stroke-dashoffset:0;stroke-opacity:1" />
    <rect
       y="17.45208"
       x="75.032928"
       height="21.428572"
       width="21.428572"
       id="rect4174"
       style="opacity:1;fill:#aaeeff;fill-opacity:1;stroke:#4d4d4d;stroke-width:1;stroke-linecap:butt;stroke-linejoin:bevel;stroke-miterlimit:4;stroke-dasharray:none;stroke-dashoffset:0;stroke-opacity:1" />
    <rect
       style="opacity:1;fill:#aaeeff;fill-opacity:1;stroke:#4d4d4d;stroke-width:1;stroke-linecap:butt;stroke-linejoin:bevel;stroke-miterlimit:4;stroke-dasharray:none;stroke-dashoffset:0;stroke-opacity:1"
       id="rect4176"
       width="21.428572"
       height="21.428572"
       x="75.032928"
       y="41.45208" />
    <rect
       y="65.452072"
       x="75.032928"
       height="21.428572"
       width="21.428572"
       id="rect4178"
       style="opacity:1;fill:#aaeeff;fill-opacity:1;stroke:#4d4d4d;stroke-width:1;stroke-linecap:butt;stroke-linejoin:bevel;stroke-miterlimit:4;stroke-dasharray:none;stroke-dashoffset:0;stroke-opacity:1" />
    <rect
       style="opacity:1;fill:#aaeeff;fill-opacity:1;stroke:#4d4d4d;stroke-width:1;stroke-linecap:butt;stroke-linejoin:bevel;stroke-miterlimit:4;stroke-dasharray:none;stroke-dashoffset:0;stroke-opacity:1"
       id="rect4180"
       width="21.428572"
       height="21.428572"
       x="75.032928"
       y="89.45208" />
    <rect
       style="opacity:1;fill:#aaeeff;fill-opacity:1;stroke:#4d4d4d;stroke-width:1;stroke-linecap:butt;stroke-linejoin:bevel;stroke-miterlimit:4;stroke-dasharray:none;stroke-dashoffset:0;stroke-opacity:1"
       id="rect4182"
       width="21.428572"
       height="21.428572"
       x="101.03292"
       y="17.45208" />
    <rect
       y="41.45208"
       x="101.03292"
       height="21.428572"
       width="21.428572"
       id="rect4184"
       style="opacity:1;fill:#aaeeff;fill-opacity:1;stroke:#4d4d4d;stroke-width:1;stroke-linecap:butt;stroke-linejoin:bevel;stroke-miterlimit:4;stroke-dasharray:none;stroke-dashoffset:0;stroke-opacity:1" />
    <rect
       style="opacity:1;fill:#aaeeff;fill-opacity:1;stroke:#4d4d4d;stroke-width:1;stroke-linecap:butt;stroke-linejoin:bevel;stroke-miterlimit:4;stroke-dasharray:none;stroke-dashoffset:0;stroke-opacity:1"
       id="rect4186"
       width="21.428572"
       height="21.428572"
       x="101.03292"
       y="65.452072" />
    <rect
       y="89.45208"
       x="101.03292"
       height="21.428572"
       width="21.428572"
       id="rect4188"
       style="opacity:1;fill:#aaeeff;fill-opacity:1;stroke:#4d4d4d;stroke-width:1;stroke-linecap:butt;stroke-linejoin:bevel;stroke-miterlimit:4;stroke-dasharray:none;stroke-dashoffset:0;stroke-opacity:1" />
    <rect
       y="17.45208"
       x="127.03294"
       height="21.428572"
       width="21.428572"
       id="rect4190"
       style="opacity:1;fill:#aaeeff;fill-opacity:1;stroke:#4d4d4d;stroke-width:1;stroke-linecap:butt;stroke-linejoin:bevel;stroke-miterlimit:4;stroke-dasharray:none;stroke-dashoffset:0;stroke-opacity:1" />
    <rect
       style="opacity:1;fill:#aaeeff;fill-opacity:1;stroke:#4d4d4d;stroke-width:1;stroke-linecap:butt;stroke-linejoin:bevel;stroke-miterlimit:4;stroke-dasharray:none;stroke-dashoffset:0;stroke-opacity:1"
       id="rect4192"
       width="21.428572"
       height="21.428572"
       x="127.03294"
       y="41.45208" />
    <rect
       y="65.452072"
       x="127.03294"
       height="21.428572"
       width="21.428572"
       id="rect4194"
       style="opacity:1;fill:#aaeeff;fill-opacity:1;stroke:#4d4d4d;stroke-width:1;stroke-linecap:butt;stroke-linejoin:bevel;stroke-miterlimit:4;stroke-dasharray:none;stroke-dashoffset:0;stroke-opacity:1" />
    <rect
       style="opacity:1;fill:#aaeeff;fill-opacity:1;stroke:#4d4d4d;stroke-width:1;stroke-linecap:butt;stroke-linejoin:bevel;stroke-miterlimit:4;stroke-dasharray:none;stroke-dashoffset:0;stroke-opacity:1"
       id="rect4196"
       width="21.428572"
       height="21.428572"
       x="127.03294"
       y="89.45208" />
    <rect
       style="opacity:1;fill:#aaeeff;fill-opacity:1;stroke:#4d4d4d;stroke-width:1;stroke-linecap:butt;stroke-linejoin:bevel;stroke-miterlimit:4;stroke-dasharray:none;stroke-dashoffset:0;stroke-opacity:1"
       id="rect4198"
       width="21.428572"
       height="21.428572"
       x="153.03293"
       y="17.45208" />
    <rect
       y="41.45208"
       x="153.03293"
       height="21.428572"
       width="21.428572"
       id="rect4200"
       style="opacity:1;fill:#aaeeff;fill-opacity:1;stroke:#4d4d4d;stroke-width:1;stroke-linecap:butt;stroke-linejoin:bevel;stroke-miterlimit:4;stroke-dasharray:none;stroke-dashoffset:0;stroke-opacity:1" />
    <rect
       style="opacity:1;fill:#aaeeff;fill-opacity:1;stroke:#4d4d4d;stroke-width:1;stroke-linecap:butt;stroke-linejoin:bevel;stroke-miterlimit:4;stroke-dasharray:none;stroke-dashoffset:0;stroke-opacity:1"
       id="rect4202"
       width="21.428572"
       height="21.428572"
       x="153.03293"
       y="65.452072" />
    <rect
       y="89.45208"
       x="153.03293"
       height="21.428572"
       width="21.428572"
       id="rect4204"
       style="opacity:1;fill:#aaeeff;fill-opacity:1;stroke:#4d4d4d;stroke-width:1;stroke-linecap:butt;stroke-linejoin:bevel;stroke-miterlimit:4;stroke-dasharray:none;stroke-dashoffset:0;stroke-opacity:1" />
    <rect
       y="17.45208"
       x="179.03293"
       height="21.428572"
       width="21.428572"
       id="rect4206"
       style="opacity:1;fill:#aaeeff;fill-opacity:1;stroke:#4d4d4d;stroke-width:1;stroke-linecap:butt;stroke-linejoin:bevel;stroke-miterlimit:4;stroke-dasharray:none;stroke-dashoffset:0;stroke-opacity:1" />
    <rect
       style="opacity:1;fill:#aaeeff;fill-opacity:1;stroke:#4d4d4d;stroke-width:1;stroke-linecap:butt;stroke-linejoin:bevel;stroke-miterlimit:4;stroke-dasharray:none;stroke-dashoffset:0;stroke-opacity:1"
       id="rect4208"
       width="21.428572"
       height="21.428572"
       x="179.03293"
       y="41.45208" />
    <rect
       y="65.452072"
       x="179.03293"
       height="21.428572"
       width="21.428572"
       id="rect4210"
       style="opacity:1;fill:#aaeeff;fill-opacity:1;stroke:#4d4d4d;stroke-width:1;stroke-linecap:butt;stroke-linejoin:bevel;stroke-miterlimit:4;stroke-dasharray:none;stroke-dashoffset:0;stroke-opacity:1" />
    <rect
       style="opacity:1;fill:#aaeeff;fill-opacity:1;stroke:#4d4d4d;stroke-width:1;stroke-linecap:butt;stroke-linejoin:bevel;stroke-miterlimit:4;stroke-dasharray:none;stroke-dashoffset:0;stroke-opacity:1"
       id="rect4212"
       width="21.428572"
       height="21.428572"
       x="179.03293"
       y="89.45208" />
    <rect
       y="17.45208"
       x="205.03293"
       height="21.428572"
       width="21.428572"
       id="rect4254"
       style="opacity:1;fill:#aaeeff;fill-opacity:1;stroke:#4d4d4d;stroke-width:1;stroke-linecap:butt;stroke-linejoin:bevel;stroke-miterlimit:4;stroke-dasharray:none;stroke-dashoffset:0;stroke-opacity:1" />
    <rect
       style="opacity:1;fill:#aaeeff;fill-opacity:1;stroke:#4d4d4d;stroke-width:1;stroke-linecap:butt;stroke-linejoin:bevel;stroke-miterlimit:4;stroke-dasharray:none;stroke-dashoffset:0;stroke-opacity:1"
       id="rect4256"
       width="21.428572"
       height="21.428572"
       x="205.03293"
       y="41.45208" />
    <rect
       y="65.452072"
       x="205.03293"
       height="21.428572"
       width="21.428572"
       id="rect4258"
       style="opacity:1;fill:#aaeeff;fill-opacity:1;stroke:#4d4d4d;stroke-width:1;stroke-linecap:butt;stroke-linejoin:bevel;stroke-miterlimit:4;stroke-dasharray:none;stroke-dashoffset:0;stroke-opacity:1" />
    <rect
       style="opacity:1;fill:#aaeeff;fill-opacity:1;stroke:#4d4d4d;stroke-width:1;stroke-linecap:butt;stroke-linejoin:bevel;stroke-miterlimit:4;stroke-dasharray:none;stroke-dashoffset:0;stroke-opacity:1"
       id="rect4260"
       width="21.428572"
       height="21.428572"
       x="205.03293"
       y="89.45208" />
    <rect
       style="opacity:1;fill:#aaeeff;fill-opacity:1;stroke:#4d4d4d;stroke-width:1;stroke-linecap:butt;stroke-linejoin:bevel;stroke-miterlimit:4;stroke-dasharray:none;stroke-dashoffset:0;stroke-opacity:1"
       id="rect4262"
       width="21.428572"
       height="21.428572"
       x="231.03293"
       y="17.45208" />
    <rect
       y="41.45208"
       x="231.03293"
       height="21.428572"
       width="21.428572"
       id="rect4264"
       style="opacity:1;fill:#aaeeff;fill-opacity:1;stroke:#4d4d4d;stroke-width:1;stroke-linecap:butt;stroke-linejoin:bevel;stroke-miterlimit:4;stroke-dasharray:none;stroke-dashoffset:0;stroke-opacity:1" />
    <rect
       style="opacity:1;fill:#aaeeff;fill-opacity:1;stroke:#4d4d4d;stroke-width:1;stroke-linecap:butt;stroke-linejoin:bevel;stroke-miterlimit:4;stroke-dasharray:none;stroke-dashoffset:0;stroke-opacity:1"
       id="rect4266"
       width="21.428572"
       height="21.428572"
       x="231.03293"
       y="65.452072" />
    <rect
       y="89.45208"
       x="231.03293"
       height="21.428572"
       width="21.428572"
       id="rect4268"
       style="opacity:1;fill:#aaeeff;fill-opacity:1;stroke:#4d4d4d;stroke-width:1;stroke-linecap:butt;stroke-linejoin:bevel;stroke-miterlimit:4;stroke-dasharray:none;stroke-dashoffset:0;stroke-opacity:1" />
    <rect
       y="17.45208"
       x="257.0329"
       height="21.428572"
       width="21.428572"
       id="rect4270"
       style="opacity:1;fill:#aaeeff;fill-opacity:1;stroke:#4d4d4d;stroke-width:1;stroke-linecap:butt;stroke-linejoin:bevel;stroke-miterlimit:4;stroke-dasharray:none;stroke-dashoffset:0;stroke-opacity:1" />
    <rect
       style="opacity:1;fill:#aaeeff;fill-opacity:1;stroke:#4d4d4d;stroke-width:1;stroke-linecap:butt;stroke-linejoin:bevel;stroke-miterlimit:4;stroke-dasharray:none;stroke-dashoffset:0;stroke-opacity:1"
       id="rect4272"
       width="21.428572"
       height="21.428572"
       x="257.0329"
       y="41.45208" />
    <rect
       y="65.452072"
       x="257.0329"
       height="21.428572"
       width="21.428572"
       id="rect4274"
       style="opacity:1;fill:#aaeeff;fill-opacity:1;stroke:#4d4d4d;stroke-width:1;stroke-linecap:butt;stroke-linejoin:bevel;stroke-miterlimit:4;stroke-dasharray:none;stroke-dashoffset:0;stroke-opacity:1" />
    <rect
       style="opacity:1;fill:#aaeeff;fill-opacity:1;stroke:#4d4d4d;stroke-width:1;stroke-linecap:butt;stroke-linejoin:bevel;stroke-miterlimit:4;stroke-dasharray:none;stroke-dashoffset:0;stroke-opacity:1"
       id="rect4276"
       width="21.428572"
       height="21.428572"
       x="257.0329"
       y="89.45208" />
    <rect
       style="opacity:1;fill:#aaeeff;fill-opacity:1;stroke:#4d4d4d;stroke-width:1;stroke-linecap:butt;stroke-linejoin:bevel;stroke-miterlimit:4;stroke-dasharray:none;stroke-dashoffset:0;stroke-opacity:1"
       id="rect4278"
       width="21.428572"
       height="21.428572"
       x="283.03293"
       y="17.45208" />
    <rect
       y="41.45208"
       x="283.03293"
       height="21.428572"
       width="21.428572"
       id="rect4280"
       style="opacity:1;fill:#aaeeff;fill-opacity:1;stroke:#4d4d4d;stroke-width:1;stroke-linecap:butt;stroke-linejoin:bevel;stroke-miterlimit:4;stroke-dasharray:none;stroke-dashoffset:0;stroke-opacity:1" />
    <rect
       style="opacity:1;fill:#aaeeff;fill-opacity:1;stroke:#4d4d4d;stroke-width:1;stroke-linecap:butt;stroke-linejoin:bevel;stroke-miterlimit:4;stroke-dasharray:none;stroke-dashoffset:0;stroke-opacity:1"
       id="rect4282"
       width="21.428572"
       height="21.428572"
       x="283.03293"
       y="65.452072" />
    <rect
       y="89.45208"
       x="283.03293"
       height="21.428572"
       width="21.428572"
       id="rect4284"
       style="opacity:1;fill:#aaeeff;fill-opacity:1;stroke:#4d4d4d;stroke-width:1;stroke-linecap:butt;stroke-linejoin:bevel;stroke-miterlimit:4;stroke-dasharray:none;stroke-dashoffset:0;stroke-opacity:1" />
    <rect
       y="17.45208"
       x="309.03293"
       height="21.428572"
       width="21.428572"
       id="rect4286"
       style="opacity:1;fill:#aaeeff;fill-opacity:1;stroke:#4d4d4d;stroke-width:1;stroke-linecap:butt;stroke-linejoin:bevel;stroke-miterlimit:4;stroke-dasharray:none;stroke-dashoffset:0;stroke-opacity:1" />
    <rect
       style="opacity:1;fill:#aaeeff;fill-opacity:1;stroke:#4d4d4d;stroke-width:1;stroke-linecap:butt;stroke-linejoin:bevel;stroke-miterlimit:4;stroke-dasharray:none;stroke-dashoffset:0;stroke-opacity:1"
       id="rect4288"
       width="21.428572"
       height="21.428572"
       x="309.03293"
       y="41.45208" />
    <rect
       y="65.452072"
       x="309.03293"
       height="21.428572"
       width="21.428572"
       id="rect4290"
       style="opacity:1;fill:#aaeeff;fill-opacity:1;stroke:#4d4d4d;stroke-width:1;stroke-linecap:butt;stroke-linejoin:bevel;stroke-miterlimit:4;stroke-dasharray:none;stroke-dashoffset:0;stroke-opacity:1" />
    <rect
       style="opacity:1;fill:#aaeeff;fill-opacity:1;stroke:#4d4d4d;stroke-width:1;stroke-linecap:butt;stroke-linejoin:bevel;stroke-miterlimit:4;stroke-dasharray:none;stroke-dashoffset:0;stroke-opacity:1"
       id="rect4292"
       width="21.428572"
       height="21.428572"
       x="309.03293"
       y="89.45208" />
    <rect
       style="opacity:1;fill:#aaeeff;fill-opacity:1;stroke:#4d4d4d;stroke-width:1;stroke-linecap:butt;stroke-linejoin:bevel;stroke-miterlimit:4;stroke-dasharray:none;stroke-dashoffset:0;stroke-opacity:1"
       id="rect4294"
       width="21.428572"
       height="21.428572"
       x="335.03293"
       y="17.45208" />
    <rect
       y="41.45208"
       x="335.03293"
       height="21.428572"
       width="21.428572"
       id="rect4296"
       style="opacity:1;fill:#aaeeff;fill-opacity:1;stroke:#4d4d4d;stroke-width:1;stroke-linecap:butt;stroke-linejoin:bevel;stroke-miterlimit:4;stroke-dasharray:none;stroke-dashoffset:0;stroke-opacity:1" />
    <rect
       style="opacity:1;fill:#aaeeff;fill-opacity:1;stroke:#4d4d4d;stroke-width:1;stroke-linecap:butt;stroke-linejoin:bevel;stroke-miterlimit:4;stroke-dasharray:none;stroke-dashoffset:0;stroke-opacity:1"
       id="rect4298"
       width="21.428572"
       height="21.428572"
       x="335.03293"
       y="65.452072" />
    <rect
       y="89.45208"
       x="335.03293"
       height="21.428572"
       width="21.428572"
       id="rect4300"
       style="opacity:1;fill:#aaeeff;fill-opacity:1;stroke:#4d4d4d;stroke-width:1;stroke-linecap:butt;stroke-linejoin:bevel;stroke-miterlimit:4;stroke-dasharray:none;stroke-dashoffset:0;stroke-opacity:1" />
    <text
       xml:space="preserve"
       style="font-style:normal;font-weight:normal;font-size:12px;line-height:125%;font-family:Sans;letter-spacing:0px;word-spacing:0px;fill:#000000;fill-opacity:1;stroke:none;stroke-width:1px;stroke-linecap:butt;stroke-linejoin:miter;stroke-opacity:1"
       x="81.428154"
       y="32.925461"
       id="text4343"
       sodipodi:linespacing="125%"><tspan
         sodipodi:role="line"
         id="tspan4345"
         x="81.428154"
         y="32.925461">1</tspan></text>
    <text
       xml:space="preserve"
       style="font-style:normal;font-weight:normal;font-size:12px;line-height:125%;font-family:Sans;letter-spacing:0px;word-spacing:0px;fill:#000000;fill-opacity:1;stroke:none;stroke-width:1px;stroke-linecap:butt;stroke-linejoin:miter;stroke-opacity:1"
       x="237.52109"
       y="56.757477"
       id="text4343-7"
       sodipodi:linespacing="125%"><tspan
         sodipodi:role="line"
         id="tspan4345-2"
         x="237.52109"
         y="56.757477">1</tspan></text>
    <text
       xml:space="preserve"
       style="font-style:normal;font-weight:normal;font-size:12px;line-height:125%;font-family:Sans;letter-spacing:0px;word-spacing:0px;fill:#000000;fill-opacity:1;stroke:none;stroke-width:1px;stroke-linecap:butt;stroke-linejoin:miter;stroke-opacity:1"
       x="341.62427"
       y="56.757477"
       id="text4343-1"
       sodipodi:linespacing="125%"><tspan
         sodipodi:role="line"
         id="tspan4345-26"
         x="341.62427"
         y="56.757477">1</tspan></text>
    <text
       xml:space="preserve"
       style="font-style:normal;font-weight:normal;font-size:12px;line-height:125%;font-family:Sans;letter-spacing:0px;word-spacing:0px;fill:#000000;fill-opacity:1;stroke:none;stroke-width:1px;stroke-linecap:butt;stroke-linejoin:miter;stroke-opacity:1"
       x="211.4953"
       y="56.757477"
       id="text4343-0"
       sodipodi:linespacing="125%"><tspan
         sodipodi:role="line"
         id="tspan4345-8"
         x="211.4953"
         y="56.757477">1</tspan></text>
    <text
       xml:space="preserve"
       style="font-style:normal;font-weight:normal;font-size:12px;line-height:125%;font-family:Sans;letter-spacing:0px;word-spacing:0px;fill:#000000;fill-opacity:1;stroke:none;stroke-width:1px;stroke-linecap:butt;stroke-linejoin:miter;stroke-opacity:1"
       x="107.45396"
       y="32.925461"
       id="text4343-8"
       sodipodi:linespacing="125%"><tspan
         sodipodi:role="line"
         id="tspan4345-4"
         x="107.45396"
         y="32.925461">1</tspan></text>
    <text
       xml:space="preserve"
       style="font-style:normal;font-weight:normal;font-size:12px;line-height:125%;font-family:Sans;letter-spacing:0px;word-spacing:0px;fill:#000000;fill-opacity:1;stroke:none;stroke-width:1px;stroke-linecap:butt;stroke-linejoin:miter;stroke-opacity:1"
       x="263.54688"
       y="56.757477"
       id="text4343-6"
       sodipodi:linespacing="125%"><tspan
         sodipodi:role="line"
         id="tspan4345-6"
         x="263.54688"
         y="56.757477">1</tspan></text>
    <text
       xml:space="preserve"
       style="font-style:normal;font-weight:normal;font-size:12px;line-height:125%;font-family:Sans;letter-spacing:0px;word-spacing:0px;fill:#000000;fill-opacity:1;stroke:none;stroke-width:1px;stroke-linecap:butt;stroke-linejoin:miter;stroke-opacity:1"
       x="133.47974"
       y="32.925461"
       id="text4343-79"
       sodipodi:linespacing="125%"><tspan
         sodipodi:role="line"
         id="tspan4345-0"
         x="133.47974"
         y="32.925461">1</tspan></text>
    <text
       xml:space="preserve"
       style="font-style:normal;font-weight:normal;font-size:12px;line-height:125%;font-family:Sans;letter-spacing:0px;word-spacing:0px;fill:#000000;fill-opacity:1;stroke:none;stroke-width:1px;stroke-linecap:butt;stroke-linejoin:miter;stroke-opacity:1"
       x="289.57266"
       y="56.757477"
       id="text4343-11"
       sodipodi:linespacing="125%"><tspan
         sodipodi:role="line"
         id="tspan4345-08"
         x="289.57266"
         y="56.757477">1</tspan></text>
    <text
       xml:space="preserve"
       style="font-style:normal;font-weight:normal;font-size:12px;line-height:125%;font-family:Sans;letter-spacing:0px;word-spacing:0px;fill:#000000;fill-opacity:1;stroke:none;stroke-width:1px;stroke-linecap:butt;stroke-linejoin:miter;stroke-opacity:1"
       x="263.96252"
       y="80.961151"
       id="text4343-5"
       sodipodi:linespacing="125%"><tspan
         sodipodi:role="line"
         id="tspan4345-46"
         x="263.96252"
         y="80.961151">1</tspan></text>
    <text
       xml:space="preserve"
       style="font-style:normal;font-weight:normal;font-size:12px;line-height:125%;font-family:Sans;letter-spacing:0px;word-spacing:0px;fill:#000000;fill-opacity:1;stroke:none;stroke-width:1px;stroke-linecap:butt;stroke-linejoin:miter;stroke-opacity:1"
       x="81.43129"
       y="104.67545"
       id="text4343-02"
       sodipodi:linespacing="125%"><tspan
         sodipodi:role="line"
         id="tspan4345-65"
         x="81.43129"
         y="104.67545">1</tspan></text>
    <text
       xml:space="preserve"
       style="font-style:normal;font-weight:normal;font-size:12px;line-height:125%;font-family:Sans;letter-spacing:0px;word-spacing:0px;fill:#000000;fill-opacity:1;stroke:none;stroke-width:1px;stroke-linecap:butt;stroke-linejoin:miter;stroke-opacity:1"
       x="316.24786"
       y="104.67545"
       id="text4343-9"
       sodipodi:linespacing="125%"><tspan
         sodipodi:role="line"
         id="tspan4345-47"
         x="316.24786"
         y="104.67545">1</tspan></text>
    <text
       xml:space="preserve"
       style="font-style:normal;font-weight:normal;font-size:12px;line-height:125%;font-family:Sans;letter-spacing:0px;word-spacing:0px;fill:#000000;fill-opacity:1;stroke:none;stroke-width:1px;stroke-linecap:butt;stroke-linejoin:miter;stroke-opacity:1"
       x="315.59848"
       y="56.757477"
       id="text4343-3"
       sodipodi:linespacing="125%"><tspan
         sodipodi:role="line"
         id="tspan4345-651"
         x="315.59848"
         y="56.757477">1</tspan></text>
    <text
       xml:space="preserve"
       style="font-style:normal;font-weight:normal;font-size:12px;line-height:125%;font-family:Sans;letter-spacing:0px;word-spacing:0px;fill:#000000;fill-opacity:1;stroke:none;stroke-width:1px;stroke-linecap:butt;stroke-linejoin:miter;stroke-opacity:1"
       x="290.15714"
       y="104.67545"
       id="text4343-08"
       sodipodi:linespacing="125%"><tspan
         sodipodi:role="line"
         id="tspan4345-23"
         x="290.15714"
         y="104.67545">1</tspan></text>
    <text
       xml:space="preserve"
       style="font-style:normal;font-weight:normal;font-size:12px;line-height:125%;font-family:Sans;letter-spacing:0px;word-spacing:0px;fill:#000000;fill-opacity:1;stroke:none;stroke-width:1px;stroke-linecap:butt;stroke-linejoin:miter;stroke-opacity:1"
       x="159.50552"
       y="32.925461"
       id="text4343-01"
       sodipodi:linespacing="125%"><tspan
         sodipodi:role="line"
         id="tspan4345-9"
         x="159.50552"
         y="32.925461">1</tspan></text>
    <text
       xml:space="preserve"
       style="font-style:normal;font-weight:normal;font-size:12px;line-height:125%;font-family:Sans;letter-spacing:0px;word-spacing:0px;fill:#000000;fill-opacity:1;stroke:none;stroke-width:1px;stroke-linecap:butt;stroke-linejoin:miter;stroke-opacity:1"
       x="237.97568"
       y="104.67545"
       id="text4343-15"
       sodipodi:linespacing="125%"><tspan
         sodipodi:role="line"
         id="tspan4345-01"
         x="237.97568"
         y="104.67545">1</tspan></text>
    <text
       xml:space="preserve"
       style="font-style:normal;font-weight:normal;font-size:12px;line-height:125%;font-family:Sans;letter-spacing:0px;word-spacing:0px;fill:#000000;fill-opacity:1;stroke:none;stroke-width:1px;stroke-linecap:butt;stroke-linejoin:miter;stroke-opacity:1"
       x="211.24655"
       y="32.755539"
       id="text4469"
       sodipodi:linespacing="125%"><tspan
         sodipodi:role="line"
         id="tspan4471"
         x="211.24655"
         y="32.755539">0</tspan></text>
    <text
       xml:space="preserve"
       style="font-style:normal;font-weight:normal;font-size:12px;line-height:125%;font-family:Sans;letter-spacing:0px;word-spacing:0px;fill:#000000;fill-opacity:1;stroke:none;stroke-width:1px;stroke-linecap:butt;stroke-linejoin:miter;stroke-opacity:1"
       x="237.27234"
       y="32.755539"
       id="text4469-0"
       sodipodi:linespacing="125%"><tspan
         sodipodi:role="line"
         id="tspan4471-3"
         x="237.27234"
         y="32.755539">0</tspan></text>
    <text
       xml:space="preserve"
       style="font-style:normal;font-weight:normal;font-size:12px;line-height:125%;font-family:Sans;letter-spacing:0px;word-spacing:0px;fill:#000000;fill-opacity:1;stroke:none;stroke-width:1px;stroke-linecap:butt;stroke-linejoin:miter;stroke-opacity:1"
       x="263.2981"
       y="32.755539"
       id="text4469-8"
       sodipodi:linespacing="125%"><tspan
         sodipodi:role="line"
         id="tspan4471-1"
         x="263.2981"
         y="32.755539">0</tspan></text>
    <text
       xml:space="preserve"
       style="font-style:normal;font-weight:normal;font-size:12px;line-height:125%;font-family:Sans;letter-spacing:0px;word-spacing:0px;fill:#000000;fill-opacity:1;stroke:none;stroke-width:1px;stroke-linecap:butt;stroke-linejoin:miter;stroke-opacity:1"
       x="289.32391"
       y="32.755539"
       id="text4469-7"
       sodipodi:linespacing="125%"><tspan
         sodipodi:role="line"
         id="tspan4471-8"
         x="289.32391"
         y="32.755539">0</tspan></text>
    <text
       xml:space="preserve"
       style="font-style:normal;font-weight:normal;font-size:12px;line-height:125%;font-family:Sans;letter-spacing:0px;word-spacing:0px;fill:#000000;fill-opacity:1;stroke:none;stroke-width:1px;stroke-linecap:butt;stroke-linejoin:miter;stroke-opacity:1"
       x="341.37552"
       y="32.755539"
       id="text4469-81"
       sodipodi:linespacing="125%"><tspan
         sodipodi:role="line"
         id="tspan4471-15"
         x="341.37552"
         y="32.755539">0</tspan></text>
    <text
       xml:space="preserve"
       style="font-style:normal;font-weight:normal;font-size:12px;line-height:125%;font-family:Sans;letter-spacing:0px;word-spacing:0px;fill:#000000;fill-opacity:1;stroke:none;stroke-width:1px;stroke-linecap:butt;stroke-linejoin:miter;stroke-opacity:1"
       x="264.1748"
       y="104.50554"
       id="text4469-1"
       sodipodi:linespacing="125%"><tspan
         sodipodi:role="line"
         id="tspan4471-81"
         x="264.1748"
         y="104.50554">0</tspan></text>
    <text
       xml:space="preserve"
       style="font-style:normal;font-weight:normal;font-size:12px;line-height:125%;font-family:Sans;letter-spacing:0px;word-spacing:0px;fill:#000000;fill-opacity:1;stroke:none;stroke-width:1px;stroke-linecap:butt;stroke-linejoin:miter;stroke-opacity:1"
       x="159.81189"
       y="104.50554"
       id="text4469-00"
       sodipodi:linespacing="125%"><tspan
         sodipodi:role="line"
         id="tspan4471-84"
         x="159.81189"
         y="104.50554">0</tspan></text>
    <text
       xml:space="preserve"
       style="font-style:normal;font-weight:normal;font-size:12px;line-height:125%;font-family:Sans;letter-spacing:0px;word-spacing:0px;fill:#000000;fill-opacity:1;stroke:none;stroke-width:1px;stroke-linecap:butt;stroke-linejoin:miter;stroke-opacity:1"
       x="342.44699"
       y="104.50554"
       id="text4469-5"
       sodipodi:linespacing="125%"><tspan
         sodipodi:role="line"
         id="tspan4471-2"
         x="342.44699"
         y="104.50554">0</tspan></text>
    <text
       xml:space="preserve"
       style="font-style:normal;font-weight:normal;font-size:12px;line-height:125%;font-family:Sans;letter-spacing:0px;word-spacing:0px;fill:#000000;fill-opacity:1;stroke:none;stroke-width:1px;stroke-linecap:butt;stroke-linejoin:miter;stroke-opacity:1"
       x="185.57791"
       y="56.587547"
       id="text4469-74"
       sodipodi:linespacing="125%"><tspan
         sodipodi:role="line"
         id="tspan4471-10"
         x="185.57791"
         y="56.587547">0</tspan></text>
    <text
       xml:space="preserve"
       style="font-style:normal;font-weight:normal;font-size:12px;line-height:125%;font-family:Sans;letter-spacing:0px;word-spacing:0px;fill:#000000;fill-opacity:1;stroke:none;stroke-width:1px;stroke-linecap:butt;stroke-linejoin:miter;stroke-opacity:1"
       x="133.52634"
       y="56.587547"
       id="text4469-54"
       sodipodi:linespacing="125%"><tspan
         sodipodi:role="line"
         id="tspan4471-0"
         x="133.52634"
         y="56.587547">0</tspan></text>
    <text
       xml:space="preserve"
       style="font-style:normal;font-weight:normal;font-size:12px;line-height:125%;font-family:Sans;letter-spacing:0px;word-spacing:0px;fill:#000000;fill-opacity:1;stroke:none;stroke-width:1px;stroke-linecap:butt;stroke-linejoin:miter;stroke-opacity:1"
       x="55.448967"
       y="56.587547"
       id="text4469-3"
       sodipodi:linespacing="125%"><tspan
         sodipodi:role="line"
         id="tspan4471-7"
         x="55.448967"
         y="56.587547">0</tspan></text>
    <text
       xml:space="preserve"
       style="font-style:normal;font-weight:normal;font-size:12px;line-height:125%;font-family:Sans;letter-spacing:0px;word-spacing:0px;fill:#000000;fill-opacity:1;stroke:none;stroke-width:1px;stroke-linecap:butt;stroke-linejoin:miter;stroke-opacity:1"
       x="237.99319"
       y="80.791229"
       id="text4469-2"
       sodipodi:linespacing="125%"><tspan
         sodipodi:role="line"
         id="tspan4471-70"
         x="237.99319"
         y="80.791229">0</tspan></text>
    <text
       xml:space="preserve"
       style="font-style:normal;font-weight:normal;font-size:12px;line-height:125%;font-family:Sans;letter-spacing:0px;word-spacing:0px;fill:#000000;fill-opacity:1;stroke:none;stroke-width:1px;stroke-linecap:butt;stroke-linejoin:miter;stroke-opacity:1"
       x="211.91544"
       y="80.791229"
       id="text4469-6"
       sodipodi:linespacing="125%"><tspan
         sodipodi:role="line"
         id="tspan4471-19"
         x="211.91544"
         y="80.791229">0</tspan></text>
    <text
       xml:space="preserve"
       style="font-style:normal;font-weight:normal;font-size:12px;line-height:125%;font-family:Sans;letter-spacing:0px;word-spacing:0px;fill:#000000;fill-opacity:1;stroke:none;stroke-width:1px;stroke-linecap:butt;stroke-linejoin:miter;stroke-opacity:1"
       x="211.99335"
       y="104.50554"
       id="text4469-64"
       sodipodi:linespacing="125%"><tspan
         sodipodi:role="line"
         id="tspan4471-4"
         x="211.99335"
         y="104.50554">0</tspan></text>
    <text
       xml:space="preserve"
       style="font-style:normal;font-weight:normal;font-size:12px;line-height:125%;font-family:Sans;letter-spacing:0px;word-spacing:0px;fill:#000000;fill-opacity:1;stroke:none;stroke-width:1px;stroke-linecap:butt;stroke-linejoin:miter;stroke-opacity:1"
       x="185.90262"
       y="104.50554"
       id="text4469-72"
       sodipodi:linespacing="125%"><tspan
         sodipodi:role="line"
         id="tspan4471-31"
         x="185.90262"
         y="104.50554">0</tspan></text>
    <text
       xml:space="preserve"
       style="font-style:normal;font-weight:normal;font-size:12px;line-height:125%;font-family:Sans;letter-spacing:0px;word-spacing:0px;fill:#000000;fill-opacity:1;stroke:none;stroke-width:1px;stroke-linecap:butt;stroke-linejoin:miter;stroke-opacity:1"
       x="185.83771"
       y="80.791229"
       id="text4469-76"
       sodipodi:linespacing="125%"><tspan
         sodipodi:role="line"
         id="tspan4471-88"
         x="185.83771"
         y="80.791229">0</tspan></text>
    <text
       xml:space="preserve"
       style="font-style:normal;font-weight:normal;font-size:12px;line-height:125%;font-family:Sans;letter-spacing:0px;word-spacing:0px;fill:#000000;fill-opacity:1;stroke:none;stroke-width:1px;stroke-linecap:butt;stroke-linejoin:miter;stroke-opacity:1"
       x="159.75995"
       y="80.791229"
       id="text4469-10"
       sodipodi:linespacing="125%"><tspan
         sodipodi:role="line"
         id="tspan4471-5"
         x="159.75995"
         y="80.791229">0</tspan></text>
    <text
       xml:space="preserve"
       style="font-style:normal;font-weight:normal;font-size:12px;line-height:125%;font-family:Sans;letter-spacing:0px;word-spacing:0px;fill:#000000;fill-opacity:1;stroke:none;stroke-width:1px;stroke-linecap:butt;stroke-linejoin:miter;stroke-opacity:1"
       x="133.72116"
       y="104.50554"
       id="text4469-9"
       sodipodi:linespacing="125%"><tspan
         sodipodi:role="line"
         id="tspan4471-87"
         x="133.72116"
         y="104.50554">0</tspan></text>
    <text
       xml:space="preserve"
       style="font-style:normal;font-weight:normal;font-size:12px;line-height:125%;font-family:Sans;letter-spacing:0px;word-spacing:0px;fill:#000000;fill-opacity:1;stroke:none;stroke-width:1px;stroke-linecap:butt;stroke-linejoin:miter;stroke-opacity:1"
       x="107.63042"
       y="104.50554"
       id="text4469-38"
       sodipodi:linespacing="125%"><tspan
         sodipodi:role="line"
         id="tspan4471-6"
         x="107.63042"
         y="104.50554">0</tspan></text>
    <text
       xml:space="preserve"
       style="font-style:normal;font-weight:normal;font-size:12px;line-height:125%;font-family:Sans;letter-spacing:0px;word-spacing:0px;fill:#000000;fill-opacity:1;stroke:none;stroke-width:1px;stroke-linecap:butt;stroke-linejoin:miter;stroke-opacity:1"
       x="133.32507"
       y="80.791229"
       id="text4469-24"
       sodipodi:linespacing="125%"><tspan
         sodipodi:role="line"
         id="tspan4471-68"
         x="133.32507"
         y="80.791229">0</tspan></text>
    <text
       xml:space="preserve"
       style="font-style:normal;font-weight:normal;font-size:12px;line-height:125%;font-family:Sans;letter-spacing:0px;word-spacing:0px;fill:#000000;fill-opacity:1;stroke:none;stroke-width:1px;stroke-linecap:butt;stroke-linejoin:miter;stroke-opacity:1"
       x="107.60445"
       y="80.791229"
       id="text4469-37"
       sodipodi:linespacing="125%"><tspan
         sodipodi:role="line"
         id="tspan4471-155"
         x="107.60445"
         y="80.791229">0</tspan></text>
    <text
       xml:space="preserve"
       style="font-style:normal;font-weight:normal;font-size:12px;line-height:125%;font-family:Sans;letter-spacing:0px;word-spacing:0px;fill:#000000;fill-opacity:1;stroke:none;stroke-width:1px;stroke-linecap:butt;stroke-linejoin:miter;stroke-opacity:1"
       x="55.448967"
       y="104.50554"
       id="text4469-20"
       sodipodi:linespacing="125%"><tspan
         sodipodi:role="line"
         id="tspan4471-06"
         x="55.448967"
         y="104.50554">0</tspan></text>
    <text
       xml:space="preserve"
       style="font-style:normal;font-weight:normal;font-size:12px;line-height:125%;font-family:Sans;letter-spacing:0px;word-spacing:0px;fill:#000000;fill-opacity:1;stroke:none;stroke-width:1px;stroke-linecap:butt;stroke-linejoin:miter;stroke-opacity:1"
       x="55.091824"
       y="32.755539"
       id="text4469-75"
       sodipodi:linespacing="125%"><tspan
         sodipodi:role="line"
         id="tspan4471-9"
         x="55.091824"
         y="32.755539">0</tspan></text>
    <text
       xml:space="preserve"
       style="font-style:normal;font-weight:normal;font-size:12px;line-height:125%;font-family:Sans;letter-spacing:0px;word-spacing:0px;fill:#000000;fill-opacity:1;stroke:none;stroke-width:1px;stroke-linecap:butt;stroke-linejoin:miter;stroke-opacity:1"
       x="81.883842"
       y="80.791229"
       id="text4469-4"
       sodipodi:linespacing="125%"><tspan
         sodipodi:role="line"
         id="tspan4471-23"
         x="81.883842"
         y="80.791229">0</tspan></text>
    <text
       xml:space="preserve"
       style="font-style:normal;font-weight:normal;font-size:12px;line-height:125%;font-family:Sans;letter-spacing:0px;word-spacing:0px;fill:#000000;fill-opacity:1;stroke:none;stroke-width:1px;stroke-linecap:butt;stroke-linejoin:miter;stroke-opacity:1"
       x="185.22076"
       y="32.755539"
       id="text4469-23"
       sodipodi:linespacing="125%"><tspan
         sodipodi:role="line"
         id="tspan4471-13"
         x="185.22076"
         y="32.755539">0</tspan></text>
    <text
       xml:space="preserve"
       style="font-style:normal;font-weight:normal;font-size:12px;line-height:125%;font-family:Sans;letter-spacing:0px;word-spacing:0px;fill:#000000;fill-opacity:1;stroke:none;stroke-width:1px;stroke-linecap:butt;stroke-linejoin:miter;stroke-opacity:1"
       x="55.448967"
       y="80.791229"
       id="text4469-60"
       sodipodi:linespacing="125%"><tspan
         sodipodi:role="line"
         id="tspan4471-75"
         x="55.448967"
         y="80.791229">0</tspan></text>
    <text
       xml:space="preserve"
       style="font-style:normal;font-weight:normal;font-size:12px;line-height:125%;font-family:Sans;letter-spacing:0px;word-spacing:0px;fill:#000000;fill-opacity:1;stroke:none;stroke-width:1px;stroke-linecap:butt;stroke-linejoin:miter;stroke-opacity:1"
       x="290.14868"
       y="80.791229"
       id="text4469-385"
       sodipodi:linespacing="125%"><tspan
         sodipodi:role="line"
         id="tspan4471-59"
         x="290.14868"
         y="80.791229">0</tspan></text>
    <text
       xml:space="preserve"
       style="font-style:normal;font-weight:normal;font-size:12px;line-height:125%;font-family:Sans;letter-spacing:0px;word-spacing:0px;fill:#000000;fill-opacity:1;stroke:none;stroke-width:1px;stroke-linecap:butt;stroke-linejoin:miter;stroke-opacity:1"
       x="316.22644"
       y="80.791229"
       id="text4469-11"
       sodipodi:linespacing="125%"><tspan
         sodipodi:role="line"
         id="tspan4471-69"
         x="316.22644"
         y="80.791229">0</tspan></text>
    <text
       xml:space="preserve"
       style="font-style:normal;font-weight:normal;font-size:12px;line-height:125%;font-family:Sans;letter-spacing:0px;word-spacing:0px;fill:#000000;fill-opacity:1;stroke:none;stroke-width:1px;stroke-linecap:butt;stroke-linejoin:miter;stroke-opacity:1"
       x="81.474754"
       y="56.587547"
       id="text4469-41"
       sodipodi:linespacing="125%"><tspan
         sodipodi:role="line"
         id="tspan4471-11"
         x="81.474754"
         y="56.587547">0</tspan></text>
    <text
       xml:space="preserve"
       style="font-style:normal;font-weight:normal;font-size:12px;line-height:125%;font-family:Sans;letter-spacing:0px;word-spacing:0px;fill:#000000;fill-opacity:1;stroke:none;stroke-width:1px;stroke-linecap:butt;stroke-linejoin:miter;stroke-opacity:1"
       x="107.50054"
       y="56.587547"
       id="text4469-36"
       sodipodi:linespacing="125%"><tspan
         sodipodi:role="line"
         id="tspan4471-89"
         x="107.50054"
         y="56.587547">0</tspan></text>
    <text
       xml:space="preserve"
       style="font-style:normal;font-weight:normal;font-size:12px;line-height:125%;font-family:Sans;letter-spacing:0px;word-spacing:0px;fill:#000000;fill-opacity:1;stroke:none;stroke-width:1px;stroke-linecap:butt;stroke-linejoin:miter;stroke-opacity:1"
       x="315.34973"
       y="32.755539"
       id="text4469-98"
       sodipodi:linespacing="125%"><tspan
         sodipodi:role="line"
         id="tspan4471-71"
         x="315.34973"
         y="32.755539">0</tspan></text>
    <text
       xml:space="preserve"
       style="font-style:normal;font-weight:normal;font-size:12px;line-height:125%;font-family:Sans;letter-spacing:0px;word-spacing:0px;fill:#000000;fill-opacity:1;stroke:none;stroke-width:1px;stroke-linecap:butt;stroke-linejoin:miter;stroke-opacity:1"
       x="159.55212"
       y="56.587547"
       id="text4469-02"
       sodipodi:linespacing="125%"><tspan
         sodipodi:role="line"
         id="tspan4471-30"
         x="159.55212"
         y="56.587547">0</tspan></text>
    <text
       xml:space="preserve"
       style="font-style:normal;font-weight:normal;font-size:12px;line-height:125%;font-family:Sans;letter-spacing:0px;word-spacing:0px;fill:#000000;fill-opacity:1;stroke:none;stroke-width:1px;stroke-linecap:butt;stroke-linejoin:miter;stroke-opacity:1"
       x="342.30417"
       y="80.791229"
       id="text4469-26"
       sodipodi:linespacing="125%"><tspan
         sodipodi:role="line"
         id="tspan4471-76"
         x="342.30417"
         y="80.791229">0</tspan></text>
  </g>
</svg>
